<svg width="19" height="23" viewBox="0 0 19 23" fill="none" xmlns="http://www.w3.org/2000/svg">
<path fill-rule="evenodd" clip-rule="evenodd" d="M8.34516 21.9061C5.98528 19.8397 0.125061 14.2651 0.125061 9.86253C0.125061 4.35002 3.80006 0.675018 9.31257 0.675018C14.8251 0.675018 18.5001 5.26877 18.5001 9.86253C18.5001 13.5534 12.5691 19.6167 10.2377 21.8575C9.70829 22.3664 8.89763 22.3899 8.34516 21.9061ZM12.3751 8.63754C12.3751 10.3289 11.004 11.7 9.31261 11.7C7.62123 11.7 6.25011 10.3289 6.25011 8.63754C6.25011 6.94617 7.62123 5.57504 9.31261 5.57504C11.004 5.57504 12.3751 6.94617 12.3751 8.63754Z" fill="white"/>
</svg>
